<svg width="26" height="19" viewBox="0 0 26 19" fill="none" xmlns="http://www.w3.org/2000/svg">
<path fill-rule="evenodd" clip-rule="evenodd" d="M8.12461 8.10016V11.183H12.7324C12.5467 12.5061 11.3396 15.0623 8.12461 15.0623C5.35064 15.0623 3.08735 12.519 3.08735 9.3847C3.08735 6.25043 5.35064 3.70705 8.12461 3.70705C9.7031 3.70705 10.7593 4.45208 11.3628 5.09435L13.5681 2.74364C12.1521 1.27927 10.3183 0.392944 8.12461 0.392944C3.63286 0.392944 0 4.41354 0 9.3847C0 14.3559 3.63286 18.3764 8.12461 18.3764C12.8137 18.3764 15.9242 14.7284 15.9242 9.59022C15.9242 8.99934 15.8662 8.54975 15.7966 8.10016H8.12461Z" fill="#EBCB80"/>
<path fill-rule="evenodd" clip-rule="evenodd" d="M25.5345 8.09788H23.2132V5.52881H20.8919V8.09788H18.5706V10.667H20.8919V13.236H23.2132V10.667H25.5345" fill="#EBCB80"/>
</svg>
