<svg width="18" height="20" viewBox="0 0 18 20" fill="none" xmlns="http://www.w3.org/2000/svg">
<path fill-rule="evenodd" clip-rule="evenodd" d="M0 9.97068C0 13.9665 2.29024 17.3795 5.5229 18.7535C5.44671 18.0075 5.37799 16.8625 5.55273 16.0483C5.71095 15.3122 6.57186 11.3597 6.57186 11.3597C6.57186 11.3597 6.31188 10.7947 6.31188 9.95969C6.31188 8.64817 7.0119 7.66916 7.88399 7.66916C8.62556 7.66916 8.98356 8.27287 8.98356 8.99745C8.98356 9.80703 8.50889 11.0168 8.26383 12.138C8.05926 13.0766 8.69748 13.8422 9.5504 13.8422C11.0948 13.8422 12.2823 12.0744 12.2823 9.5231C12.2823 7.26494 10.7874 5.68568 8.65273 5.68568C6.18029 5.68568 4.72912 7.69865 4.72912 9.77927C4.72912 10.5894 5.0168 11.4592 5.37586 11.9316C5.44671 12.0247 5.45737 12.1068 5.43606 12.2022C5.37 12.5 5.2235 13.1408 5.19473 13.2715C5.15691 13.4444 5.06847 13.4808 4.90385 13.3981C3.81867 12.8493 3.14049 11.1272 3.14049 9.744C3.14049 6.76879 5.13187 4.03645 8.88181 4.03645C11.8955 4.03645 14.2385 6.36804 14.2385 9.48377C14.2385 12.7342 12.3499 15.3503 9.7294 15.3503C8.84878 15.3503 8.02144 14.8536 7.73802 14.2672C7.73802 14.2672 7.30224 16.068 7.19676 16.5092C7.00018 17.3286 6.47064 18.3556 6.11637 18.9819C6.92932 19.2548 7.79343 19.4023 8.68949 19.4023C13.4879 19.4023 17.3785 15.1798 17.3785 9.97068C17.3785 4.7616 13.4879 0.539062 8.68949 0.539062C3.89059 0.539062 0 4.7616 0 9.97068Z" fill="#EBCB80"/>
</svg>
